\relax 
\providecommand\hyper@newdestlabel[2]{}
\providecommand\HyperFirstAtBeginDocument{\AtBeginDocument}
\HyperFirstAtBeginDocument{\ifx\hyper@anchor\@undefined
\global\let\oldnewlabel\newlabel
\gdef\newlabel#1#2{\newlabelxx{#1}#2}
\gdef\newlabelxx#1#2#3#4#5#6{\oldnewlabel{#1}{{#2}{#3}}}
\AtEndDocument{\ifx\hyper@anchor\@undefined
\let\newlabel\oldnewlabel
\fi}
\fi}
\global\let\hyper@last\relax 
\gdef\HyperFirstAtBeginDocument#1{#1}
\providecommand*\HyPL@Entry[1]{}
\HyPL@Entry{0<</S/D>>}
\@writefile{toc}{\contentsline {section}{\numberline {1}EDUCATION}{1}{section.1}\protected@file@percent }
\@writefile{toc}{\contentsline {subsection}{\numberline {1.1}Master of Technology (M. Tech)}{1}{subsection.1.1}\protected@file@percent }
\@writefile{toc}{\contentsline {subsection}{\numberline {1.2}Bachelor of Engineering (B.E.)}{1}{subsection.1.2}\protected@file@percent }
\@writefile{toc}{\contentsline {section}{\numberline {2}SKILLS}{1}{section.2}\protected@file@percent }
\@writefile{toc}{\contentsline {section}{\numberline {3}EXPERIENCE}{1}{section.3}\protected@file@percent }
\@writefile{toc}{\contentsline {subsection}{\numberline {3.1}Summer Internship - Visvesvaraya National Institute Of Technology, Nagpur}{1}{subsection.3.1}\protected@file@percent }
\@writefile{toc}{\contentsline {subsection}{\numberline {3.2}Google Summer of Code (2021)}{1}{subsection.3.2}\protected@file@percent }
\@writefile{toc}{\contentsline {subsection}{\numberline {3.3}Winter Internship - Visvesvaraya National Institute Of Technology, Nagpur}{2}{subsection.3.3}\protected@file@percent }
\@writefile{toc}{\contentsline {subsection}{\numberline {3.4}Google Summer of Code (2022)}{2}{subsection.3.4}\protected@file@percent }
\@writefile{toc}{\contentsline {subsection}{\numberline {3.5}Internship - Defence Institute of Psychological Research (DRDO)}{2}{subsection.3.5}\protected@file@percent }
\@writefile{toc}{\contentsline {section}{\numberline {4}PUBLICATIONS}{2}{section.4}\protected@file@percent }
\@writefile{toc}{\contentsline {section}{\numberline {5}PROJECTS}{3}{section.5}\protected@file@percent }
\@writefile{toc}{\contentsline {section}{\numberline {6}CERTIFICATIONS}{3}{section.6}\protected@file@percent }
\@writefile{toc}{\contentsline {section}{\numberline {7}ACTIVITIES AND INTERESTS}{3}{section.7}\protected@file@percent }
\@writefile{toc}{\contentsline {section}{\numberline {8}REFEREE}{3}{section.8}\protected@file@percent }
\gdef \@abspage@last{3}
